Part 2 - N bit adder/test.vcd
$date
  Tue Feb 28 14:05:01 2023
$end
$version
  GHDL v0
$end
$timescale
  1 fs
$end
$var reg 4 ! e1_sim[3:0] $end
$var reg 4 " e2_sim[3:0] $end
$var reg 4 # s1_sim[3:0] $end
$var reg 1 $ c_in_sim $end
$var reg 1 % c_out_sim $end
$scope module mycomponentaddnbitsundertest $end
$var reg 4 & e1[3:0] $end
$var reg 4 ' e2[3:0] $end
$var reg 1 ( c_in $end
$var reg 4 ) s1[3:0] $end
$var reg 1 * c_out $end
$var reg 5 + my_e1[4:0] $end
$var reg 5 , my_e2[4:0] $end
$var reg 5 - my_c_in[4:0] $end
$var reg 5 . my_s1[4:0] $end
$upscope $end
$enddefinitions $end
#0
b0000 !
b0000 "
b0000 #
0$
0%
b0000 &
b0000 '
0(
b0000 )
0*
b00000 +
b00000 ,
b00000 -
b00000 .
#100000000000
b0001 #
1$
1(
b0001 )
b00001 -
b00001 .
#200000000000
b0001 "
0$
b0001 '
0(
b00001 ,
b00000 -
#300000000000
b0010 #
1$
1(
b0010 )
b00001 -
b00010 .
#400000000000
b0010 "
0$
b0010 '
0(
b00010 ,
b00000 -
#500000000000
b0011 #
1$
1(
b0011 )
b00001 -
b00011 .
#600000000000
b0011 "
0$
b0011 '
0(
b00011 ,
b00000 -
#700000000000
b0100 #
1$
1(
b0100 )
b00001 -
b00100 .
#800000000000
b0100 "
0$
b0100 '
0(
b00100 ,
b00000 -
#900000000000
b0101 #
1$
1(
b0101 )
b00001 -
b00101 .
#1000000000000
b0101 "
0$
b0101 '
0(
b00101 ,
b00000 -
#1100000000000
b0110 #
1$
1(
b0110 )
b00001 -
b00110 .
#1200000000000
b0110 "
0$
b0110 '
0(
b00110 ,
b00000 -
#1300000000000
b0111 #
1$
1(
b0111 )
b00001 -
b00111 .
#1400000000000
b0111 "
0$
b0111 '
0(
b00111 ,
b00000 -
#1500000000000
b1000 #
1$
1(
b1000 )
b00001 -
b01000 .
#1600000000000
b1000 "
0$
b1000 '
0(
b01000 ,
b00000 -
#1700000000000
b1001 #
1$
1(
b1001 )
b00001 -
b01001 .
#1800000000000
b1001 "
0$
b1001 '
0(
b01001 ,
b00000 -
#1900000000000
b1010 #
1$
1(
b1010 )
b00001 -
b01010 .
#2000000000000
b1010 "
0$
b1010 '
0(
b01010 ,
b00000 -
#2100000000000
b1011 #
1$
1(
b1011 )
b00001 -
b01011 .
#2200000000000
b1011 "
0$
b1011 '
0(
b01011 ,
b00000 -
#2300000000000
b1100 #
1$
1(
b1100 )
b00001 -
b01100 .
#2400000000000
b1100 "
0$
b1100 '
0(
b01100 ,
b00000 -
#2500000000000
b1101 #
1$
1(
b1101 )
b00001 -
b01101 .
#2600000000000
b1101 "
0$
b1101 '
0(
b01101 ,
b00000 -
#2700000000000
b1110 #
1$
1(
b1110 )
b00001 -
b01110 .
#2800000000000
b1110 "
0$
b1110 '
0(
b01110 ,
b00000 -
#2900000000000
b1111 #
1$
1(
b1111 )
b00001 -
b01111 .
#3000000000000
b1111 "
0$
b1111 '
0(
b01111 ,
b00000 -
#3100000000000
b0000 #
1$
1%
1(
b0000 )
1*
b00001 -
b10000 .
#3200000000000
b0001 !
b0000 "
b0001 #
0$
0%
b0001 &
b0000 '
0(
b0001 )
0*
b00001 +
b00000 ,
b00000 -
b00001 .
#3300000000000
b0010 #
1$
1(
b0010 )
b00001 -
b00010 .
#3400000000000
b0001 "
0$
b0001 '
0(
b00001 ,
b00000 -
#3500000000000
b0011 #
1$
1(
b0011 )
b00001 -
b00011 .
#3600000000000
b0010 "
0$
b0010 '
0(
b00010 ,
b00000 -
#3700000000000
b0100 #
1$
1(
b0100 )
b00001 -
b00100 .
#3800000000000
b0011 "
0$
b0011 '
0(
b00011 ,
b00000 -
#3900000000000
b0101 #
1$
1(
b0101 )
b00001 -
b00101 .
#4000000000000
b0100 "
0$
b0100 '
0(
b00100 ,
b00000 -
#4100000000000
b0110 #
1$
1(
b0110 )
b00001 -
b00110 .
#4200000000000
b0101 "
0$
b0101 '
0(
b00101 ,
b00000 -
#4300000000000
b0111 #
1$
1(
b0111 )
b00001 -
b00111 .
#4400000000000
b0110 "
0$
b0110 '
0(
b00110 ,
b00000 -
#4500000000000
b1000 #
1$
1(
b1000 )
b00001 -
b01000 .
#4600000000000
b0111 "
0$
b0111 '
0(
b00111 ,
b00000 -
#4700000000000
b1001 #
1$
1(
b1001 )
b00001 -
b01001 .
#4800000000000
b1000 "
0$
b1000 '
0(
b01000 ,
b00000 -
#4900000000000
b1010 #
1$
1(
b1010 )
b00001 -
b01010 .
#5000000000000
b1001 "
0$
b1001 '
0(
b01001 ,
b00000 -
#5100000000000
b1011 #
1$
1(
b1011 )
b00001 -
b01011 .
#5200000000000
b1010 "
0$
b1010 '
0(
b01010 ,
b00000 -
#5300000000000
b1100 #
1$
1(
b1100 )
b00001 -
b01100 .
#5400000000000
b1011 "
0$
b1011 '
0(
b01011 ,
b00000 -
#5500000000000
b1101 #
1$
1(
b1101 )
b00001 -
b01101 .
#5600000000000
b1100 "
0$
b1100 '
0(
b01100 ,
b00000 -
#5700000000000
b1110 #
1$
1(
b1110 )
b00001 -
b01110 .
#5800000000000
b1101 "
0$
b1101 '
0(
b01101 ,
b00000 -
#5900000000000
b1111 #
1$
1(
b1111 )
b00001 -
b01111 .
#6000000000000
b1110 "
0$
b1110 '
0(
b01110 ,
b00000 -
#6100000000000
b0000 #
1$
1%
1(
b0000 )
1*
b00001 -
b10000 .
#6200000000000
b1111 "
0$
b1111 '
0(
b01111 ,
b00000 -
#6300000000000
b0001 #
1$
1(
b0001 )
b00001 -
b10001 .
#6400000000000
b0010 !
b0000 "
b0010 #
0$
0%
b0010 &
b0000 '
0(
b0010 )
0*
b00010 +
b00000 ,
b00000 -
b00010 .
#6500000000000
b0011 #
1$
1(
b0011 )
b00001 -
b00011 .
#6600000000000
b0001 "
0$
b0001 '
0(
b00001 ,
b00000 -
#6700000000000
b0100 #
1$
1(
b0100 )
b00001 -
b00100 .
#6800000000000
b0010 "
0$
b0010 '
0(
b00010 ,
b00000 -
#6900000000000
b0101 #
1$
1(
b0101 )
b00001 -
b00101 .
#7000000000000
b0011 "
0$
b0011 '
0(
b00011 ,
b00000 -
#7100000000000
b0110 #
1$
1(
b0110 )
b00001 -
b00110 .
#7200000000000
b0100 "
0$
b0100 '
0(
b00100 ,
b00000 -
#7300000000000
b0111 #
1$
1(
b0111 )
b00001 -
b00111 .
#7400000000000
b0101 "
0$
b0101 '
0(
b00101 ,
b00000 -
#7500000000000
b1000 #
1$
1(
b1000 )
b00001 -
b01000 .
#7600000000000
b0110 "
0$
b0110 '
0(
b00110 ,
b00000 -
#7700000000000
b1001 #
1$
1(
b1001 )
b00001 -
b01001 .
#7800000000000
b0111 "
0$
b0111 '
0(
b00111 ,
b00000 -
#7900000000000
b1010 #
1$
1(
b1010 )
b00001 -
b01010 .
#8000000000000
b1000 "
0$
b1000 '
0(
b01000 ,
b00000 -
#8100000000000
b1011 #
1$
1(
b1011 )
b00001 -
b01011 .
#8200000000000
b1001 "
0$
b1001 '
0(
b01001 ,
b00000 -
#8300000000000
b1100 #
1$
1(
b1100 )
b00001 -
b01100 .
#8400000000000
b1010 "
0$
b1010 '
0(
b01010 ,
b00000 -
#8500000000000
b1101 #
1$
1(
b1101 )
b00001 -
b01101 .
#8600000000000
b1011 "
0$
b1011 '
0(
b01011 ,
b00000 -
#8700000000000
b1110 #
1$
1(
b1110 )
b00001 -
b01110 .
#8800000000000
b1100 "
0$
b1100 '
0(
b01100 ,
b00000 -
#8900000000000
b1111 #
1$
1(
b1111 )
b00001 -
b01111 .
#9000000000000
b1101 "
0$
b1101 '
0(
b01101 ,
b00000 -
#9100000000000
b0000 #
1$
1%
1(
b0000 )
1*
b00001 -
b10000 .
#9200000000000
b1110 "
0$
b1110 '
0(
b01110 ,
b00000 -
#9300000000000
b0001 #
1$
1(
b0001 )
b00001 -
b10001 .
#9400000000000
b1111 "
0$
b1111 '
0(
b01111 ,
b00000 -
#9500000000000
b0010 #
1$
1(
b0010 )
b00001 -
b10010 .
#9600000000000
b0011 !
b0000 "
b0011 #
0$
0%
b0011 &
b0000 '
0(
b0011 )
0*
b00011 +
b00000 ,
b00000 -
b00011 .
#9700000000000
b0100 #
1$
1(
b0100 )
b00001 -
b00100 .
#9800000000000
b0001 "
0$
b0001 '
0(
b00001 ,
b00000 -
#9900000000000
b0101 #
1$
1(
b0101 )
b00001 -
b00101 .
#10000000000000
b0010 "
0$
b0010 '
0(
b00010 ,
b00000 -
#10100000000000
b0110 #
1$
1(
b0110 )
b00001 -
b00110 .
#10200000000000
b0011 "
0$
b0011 '
0(
b00011 ,
b00000 -
#10300000000000
b0111 #
1$
1(
b0111 )
b00001 -
b00111 .
#10400000000000
b0100 "
0$
b0100 '
0(
b00100 ,
b00000 -
#10500000000000
b1000 #
1$
1(
b1000 )
b00001 -
b01000 .
#10600000000000
b0101 "
0$
b0101 '
0(
b00101 ,
b00000 -
#10700000000000
b1001 #
1$
1(
b1001 )
b00001 -
b01001 .
#10800000000000
b0110 "
0$
b0110 '
0(
b00110 ,
b00000 -
#10900000000000
b1010 #
1$
1(
b1010 )
b00001 -
b01010 .
#11000000000000
b0111 "
0$
b0111 '
0(
b00111 ,
b00000 -
#11100000000000
b1011 #
1$
1(
b1011 )
b00001 -
b01011 .
#11200000000000
b1000 "
0$
b1000 '
0(
b01000 ,
b00000 -
#11300000000000
b1100 #
1$
1(
b1100 )
b00001 -
b01100 .
#11400000000000
b1001 "
0$
b1001 '
0(
b01001 ,
b00000 -
#11500000000000
b1101 #
1$
1(
b1101 )
b00001 -
b01101 .
#11600000000000
b1010 "
0$
b1010 '
0(
b01010 ,
b00000 -
#11700000000000
b1110 #
1$
1(
b1110 )
b00001 -
b01110 .
#11800000000000
b1011 "
0$
b1011 '
0(
b01011 ,
b00000 -
#11900000000000
b1111 #
1$
1(
b1111 )
b00001 -
b01111 .
#12000000000000
b1100 "
0$
b1100 '
0(
b01100 ,
b00000 -
#12100000000000
b0000 #
1$
1%
1(
b0000 )
1*
b00001 -
b10000 .
#12200000000000
b1101 "
0$
b1101 '
0(
b01101 ,
b00000 -
#12300000000000
b0001 #
1$
1(
b0001 )
b00001 -
b10001 .
#12400000000000
b1110 "
0$
b1110 '
0(
b01110 ,
b00000 -
#12500000000000
b0010 #
1$
1(
b0010 )
b00001 -
b10010 .
#12600000000000
b1111 "
0$
b1111 '
0(
b01111 ,
b00000 -
#12700000000000
b0011 #
1$
1(
b0011 )
b00001 -
b10011 .
#12800000000000
b0100 !
b0000 "
b0100 #
0$
0%
b0100 &
b0000 '
0(
b0100 )
0*
b00100 +
b00000 ,
b00000 -
b00100 .
#12900000000000
b0101 #
1$
1(
b0101 )
b00001 -
b00101 .
#13000000000000
b0001 "
0$
b0001 '
0(
b00001 ,
b00000 -
#13100000000000
b0110 #
1$
1(
b0110 )
b00001 -
b00110 .
#13200000000000
b0010 "
0$
b0010 '
0(
b00010 ,
b00000 -
#13300000000000
b0111 #
1$
1(
b0111 )
b00001 -
b00111 .
#13400000000000
b0011 "
0$
b0011 '
0(
b00011 ,
b00000 -
#13500000000000
b1000 #
1$
1(
b1000 )
b00001 -
b01000 .
#13600000000000
b0100 "
0$
b0100 '
0(
b00100 ,
b00000 -
#13700000000000
b1001 #
1$
1(
b1001 )
b00001 -
b01001 .
#13800000000000
b0101 "
0$
b0101 '
0(
b00101 ,
b00000 -
#13900000000000
b1010 #
1$
1(
b1010 )
b00001 -
b01010 .
#14000000000000
b0110 "
0$
b0110 '
0(
b00110 ,
b00000 -
#14100000000000
b1011 #
1$
1(
b1011 )
b00001 -
b01011 .
#14200000000000
b0111 "
0$
b0111 '
0(
b00111 ,
b00000 -
#14300000000000
b1100 #
1$
1(
b1100 )
b00001 -
b01100 .
#14400000000000
b1000 "
0$
b1000 '
0(
b01000 ,
b00000 -
#14500000000000
b1101 #
1$
1(
b1101 )
b00001 -
b01101 .
#14600000000000
b1001 "
0$
b1001 '
0(
b01001 ,
b00000 -
#14700000000000
b1110 #
1$
1(
b1110 )
b00001 -
b01110 .
#14800000000000
b1010 "
0$
b1010 '
0(
b01010 ,
b00000 -
#14900000000000
b1111 #
1$
1(
b1111 )
b00001 -
b01111 .
#15000000000000
b1011 "
0$
b1011 '
0(
b01011 ,
b00000 -
#15100000000000
b0000 #
1$
1%
1(
b0000 )
1*
b00001 -
b10000 .
#15200000000000
b1100 "
0$
b1100 '
0(
b01100 ,
b00000 -
#15300000000000
b0001 #
1$
1(
b0001 )
b00001 -
b10001 .
#15400000000000
b1101 "
0$
b1101 '
0(
b01101 ,
b00000 -
#15500000000000
b0010 #
1$
1(
b0010 )
b00001 -
b10010 .
#15600000000000
b1110 "
0$
b1110 '
0(
b01110 ,
b00000 -
#15700000000000
b0011 #
1$
1(
b0011 )
b00001 -
b10011 .
#15800000000000
b1111 "
0$
b1111 '
0(
b01111 ,
b00000 -
#15900000000000
b0100 #
1$
1(
b0100 )
b00001 -
b10100 .
#16000000000000
b0101 !
b0000 "
b0101 #
0$
0%
b0101 &
b0000 '
0(
b0101 )
0*
b00101 +
b00000 ,
b00000 -
b00101 .
#16100000000000
b0110 #
1$
1(
b0110 )
b00001 -
b00110 .
#16200000000000
b0001 "
0$
b0001 '
0(
b00001 ,
b00000 -
#16300000000000
b0111 #
1$
1(
b0111 )
b00001 -
b00111 .
#16400000000000
b0010 "
0$
b0010 '
0(
b00010 ,
b00000 -
#16500000000000
b1000 #
1$
1(
b1000 )
b00001 -
b01000 .
#16600000000000
b0011 "
0$
b0011 '
0(
b00011 ,
b00000 -
#16700000000000
b1001 #
1$
1(
b1001 )
b00001 -
b01001 .
#16800000000000
b0100 "
0$
b0100 '
0(
b00100 ,
b00000 -
#16900000000000
b1010 #
1$
1(
b1010 )
b00001 -
b01010 .
#17000000000000
b0101 "
0$
b0101 '
0(
b00101 ,
b00000 -
#17100000000000
b1011 #
1$
1(
b1011 )
b00001 -
b01011 .
#17200000000000
b0110 "
0$
b0110 '
0(
b00110 ,
b00000 -
#17300000000000
b1100 #
1$
1(
b1100 )
b00001 -
b01100 .
#17400000000000
b0111 "
0$
b0111 '
0(
b00111 ,
b00000 -
#17500000000000
b1101 #
1$
1(
b1101 )
b00001 -
b01101 .
#17600000000000
b1000 "
0$
b1000 '
0(
b01000 ,
b00000 -
#17700000000000
b1110 #
1$
1(
b1110 )
b00001 -
b01110 .
#17800000000000
b1001 "
0$
b1001 '
0(
b01001 ,
b00000 -
#17900000000000
b1111 #
1$
1(
b1111 )
b00001 -
b01111 .
#18000000000000
b1010 "
0$
b1010 '
0(
b01010 ,
b00000 -
#18100000000000
b0000 #
1$
1%
1(
b0000 )
1*
b00001 -
b10000 .
#18200000000000
b1011 "
0$
b1011 '
0(
b01011 ,
b00000 -
#18300000000000
b0001 #
1$
1(
b0001 )
b00001 -
b10001 .
#18400000000000
b1100 "
0$
b1100 '
0(
b01100 ,
b00000 -
#18500000000000
b0010 #
1$
1(
b0010 )
b00001 -
b10010 .
#18600000000000
b1101 "
0$
b1101 '
0(
b01101 ,
b00000 -
#18700000000000
b0011 #
1$
1(
b0011 )
b00001 -
b10011 .
#18800000000000
b1110 "
0$
b1110 '
0(
b01110 ,
b00000 -
#18900000000000
b0100 #
1$
1(
b0100 )
b00001 -
b10100 .
#19000000000000
b1111 "
0$
b1111 '
0(
b01111 ,
b00000 -
#19100000000000
b0101 #
1$
1(
b0101 )
b00001 -
b10101 .
#19200000000000
b0110 !
b0000 "
b0110 #
0$
0%
b0110 &
b0000 '
0(
b0110 )
0*
b00110 +
b00000 ,
b00000 -
b00110 .
#19300000000000
b0111 #
1$
1(
b0111 )
b00001 -
b00111 .
#19400000000000
b0001 "
0$
b0001 '
0(
b00001 ,
b00000 -
#19500000000000
b1000 #
1$
1(
b1000 )
b00001 -
b01000 .
#19600000000000
b0010 "
0$
b0010 '
0(
b00010 ,
b00000 -
#19700000000000
b1001 #
1$
1(
b1001 )
b00001 -
b01001 .
#19800000000000
b0011 "
0$
b0011 '
0(
b00011 ,
b00000 -
#19900000000000
b1010 #
1$
1(
b1010 )
b00001 -
b01010 .
#20000000000000
b0100 "
0$
b0100 '
0(
b00100 ,
b00000 -
#20100000000000
b1011 #
1$
1(
b1011 )
b00001 -
b01011 .
#20200000000000
b0101 "
0$
b0101 '
0(
b00101 ,
b00000 -
#20300000000000
b1100 #
1$
1(
b1100 )
b00001 -
b01100 .
#20400000000000
b0110 "
0$
b0110 '
0(
b00110 ,
b00000 -
#20500000000000
b1101 #
1$
1(
b1101 )
b00001 -
b01101 .
#20600000000000
b0111 "
0$
b0111 '
0(
b00111 ,
b00000 -
#20700000000000
b1110 #
1$
1(
b1110 )
b00001 -
b01110 .
#20800000000000
b1000 "
0$
b1000 '
0(
b01000 ,
b00000 -
#20900000000000
b1111 #
1$
1(
b1111 )
b00001 -
b01111 .
#21000000000000
b1001 "
0$
b1001 '
0(
b01001 ,
b00000 -
#21100000000000
b0000 #
1$
1%
1(
b0000 )
1*
b00001 -
b10000 .
#21200000000000
b1010 "
0$
b1010 '
0(
b01010 ,
b00000 -
#21300000000000
b0001 #
1$
1(
b0001 )
b00001 -
b10001 .
#21400000000000
b1011 "
0$
b1011 '
0(
b01011 ,
b00000 -
#21500000000000
b0010 #
1$
1(
b0010 )
b00001 -
b10010 .
#21600000000000
b1100 "
0$
b1100 '
0(
b01100 ,
b00000 -
#21700000000000
b0011 #
1$
1(
b0011 )
b00001 -
b10011 .
#21800000000000
b1101 "
0$
b1101 '
0(
b01101 ,
b00000 -
#21900000000000
b0100 #
1$
1(
b0100 )
b00001 -
b10100 .
#22000000000000
b1110 "
0$
b1110 '
0(
b01110 ,
b00000 -
#22100000000000
b0101 #
1$
1(
b0101 )
b00001 -
b10101 .
#22200000000000
b1111 "
0$
b1111 '
0(
b01111 ,
b00000 -
#22300000000000
b0110 #
1$
1(
b0110 )
b00001 -
b10110 .
#22400000000000
b0111 !
b0000 "
b0111 #
0$
0%
b0111 &
b0000 '
0(
b0111 )
0*
b00111 +
b00000 ,
b00000 -
b00111 .
#22500000000000
b1000 #
1$
1(
b1000 )
b00001 -
b01000 .
#22600000000000
b0001 "
0$
b0001 '
0(
b00001 ,
b00000 -
#22700000000000
b1001 #
1$
1(
b1001 )
b00001 -
b01001 .
#22800000000000
b0010 "
0$
b0010 '
0(
b00010 ,
b00000 -
#22900000000000
b1010 #
1$
1(
b1010 )
b00001 -
b01010 .
#23000000000000
b0011 "
0$
b0011 '
0(
b00011 ,
b00000 -
#23100000000000
b1011 #
1$
1(
b1011 )
b00001 -
b01011 .
#23200000000000
b0100 "
0$
b0100 '
0(
b00100 ,
b00000 -
#23300000000000
b1100 #
1$
1(
b1100 )
b00001 -
b01100 .
#23400000000000
b0101 "
0$
b0101 '
0(
b00101 ,
b00000 -
#23500000000000
b1101 #
1$
1(
b1101 )
b00001 -
b01101 .
#23600000000000
b0110 "
0$
b0110 '
0(
b00110 ,
b00000 -
#23700000000000
b1110 #
1$
1(
b1110 )
b00001 -
b01110 .
#23800000000000
b0111 "
0$
b0111 '
0(
b00111 ,
b00000 -
#23900000000000
b1111 #
1$
1(
b1111 )
b00001 -
b01111 .
#24000000000000
b1000 "
0$
b1000 '
0(
b01000 ,
b00000 -
#24100000000000
b0000 #
1$
1%
1(
b0000 )
1*
b00001 -
b10000 .
#24200000000000
b1001 "
0$
b1001 '
0(
b01001 ,
b00000 -
#24300000000000
b0001 #
1$
1(
b0001 )
b00001 -
b10001 .
#24400000000000
b1010 "
0$
b1010 '
0(
b01010 ,
b00000 -
#24500000000000
b0010 #
1$
1(
b0010 )
b00001 -
b10010 .
#24600000000000
b1011 "
0$
b1011 '
0(
b01011 ,
b00000 -
#24700000000000
b0011 #
1$
1(
b0011 )
b00001 -
b10011 .
#24800000000000
b1100 "
0$
b1100 '
0(
b01100 ,
b00000 -
#24900000000000
b0100 #
1$
1(
b0100 )
b00001 -
b10100 .
#25000000000000
b1101 "
0$
b1101 '
0(
b01101 ,
b00000 -
#25100000000000
b0101 #
1$
1(
b0101 )
b00001 -
b10101 .
#25200000000000
b1110 "
0$
b1110 '
0(
b01110 ,
b00000 -
#25300000000000
b0110 #
1$
1(
b0110 )
b00001 -
b10110 .
#25400000000000
b1111 "
0$
b1111 '
0(
b01111 ,
b00000 -
#25500000000000
b0111 #
1$
1(
b0111 )
b00001 -
b10111 .
#25600000000000
b1000 !
b0000 "
b1000 #
0$
0%
b1000 &
b0000 '
0(
b1000 )
0*
b01000 +
b00000 ,
b00000 -
b01000 .
#25700000000000
b1001 #
1$
1(
b1001 )
b00001 -
b01001 .
#25800000000000
b0001 "
0$
b0001 '
0(
b00001 ,
b00000 -
#25900000000000
b1010 #
1$
1(
b1010 )
b00001 -
b01010 .
#26000000000000
b0010 "
0$
b0010 '
0(
b00010 ,
b00000 -
#26100000000000
b1011 #
1$
1(
b1011 )
b00001 -
b01011 .
#26200000000000
b0011 "
0$
b0011 '
0(
b00011 ,
b00000 -
#26300000000000
b1100 #
1$
1(
b1100 )
b00001 -
b01100 .
#26400000000000
b0100 "
0$
b0100 '
0(
b00100 ,
b00000 -
#26500000000000
b1101 #
1$
1(
b1101 )
b00001 -
b01101 .
#26600000000000
b0101 "
0$
b0101 '
0(
b00101 ,
b00000 -
#26700000000000
b1110 #
1$
1(
b1110 )
b00001 -
b01110 .
#26800000000000
b0110 "
0$
b0110 '
0(
b00110 ,
b00000 -
#26900000000000
b1111 #
1$
1(
b1111 )
b00001 -
b01111 .
#27000000000000
b0111 "
0$
b0111 '
0(
b00111 ,
b00000 -
#27100000000000
b0000 #
1$
1%
1(
b0000 )
1*
b00001 -
b10000 .
#27200000000000
b1000 "
0$
b1000 '
0(
b01000 ,
b00000 -
#27300000000000
b0001 #
1$
1(
b0001 )
b00001 -
b10001 .
#27400000000000
b1001 "
0$
b1001 '
0(
b01001 ,
b00000 -
#27500000000000
b0010 #
1$
1(
b0010 )
b00001 -
b10010 .
#27600000000000
b1010 "
0$
b1010 '
0(
b01010 ,
b00000 -
#27700000000000
b0011 #
1$
1(
b0011 )
b00001 -
b10011 .
#27800000000000
b1011 "
0$
b1011 '
0(
b01011 ,
b00000 -
#27900000000000
b0100 #
1$
1(
b0100 )
b00001 -
b10100 .
#28000000000000
b1100 "
0$
b1100 '
0(
b01100 ,
b00000 -
#28100000000000
b0101 #
1$
1(
b0101 )
b00001 -
b10101 .
#28200000000000
b1101 "
0$
b1101 '
0(
b01101 ,
b00000 -
#28300000000000
b0110 #
1$
1(
b0110 )
b00001 -
b10110 .
#28400000000000
b1110 "
0$
b1110 '
0(
b01110 ,
b00000 -
#28500000000000
b0111 #
1$
1(
b0111 )
b00001 -
b10111 .
#28600000000000
b1111 "
0$
b1111 '
0(
b01111 ,
b00000 -
#28700000000000
b1000 #
1$
1(
b1000 )
b00001 -
b11000 .
#28800000000000
b1001 !
b0000 "
b1001 #
0$
0%
b1001 &
b0000 '
0(
b1001 )
0*
b01001 +
b00000 ,
b00000 -
b01001 .
#28900000000000
b1010 #
1$
1(
b1010 )
b00001 -
b01010 .
#29000000000000
b0001 "
0$
b0001 '
0(
b00001 ,
b00000 -
#29100000000000
b1011 #
1$
1(
b1011 )
b00001 -
b01011 .
#29200000000000
b0010 "
0$
b0010 '
0(
b00010 ,
b00000 -
#29300000000000
b1100 #
1$
1(
b1100 )
b00001 -
b01100 .
#29400000000000
b0011 "
0$
b0011 '
0(
b00011 ,
b00000 -
#29500000000000
b1101 #
1$
1(
b1101 )
b00001 -
b01101 .
#29600000000000
b0100 "
0$
b0100 '
0(
b00100 ,
b00000 -
#29700000000000
b1110 #
1$
1(
b1110 )
b00001 -
b01110 .
#29800000000000
b0101 "
0$
b0101 '
0(
b00101 ,
b00000 -
#29900000000000
b1111 #
1$
1(
b1111 )
b00001 -
b01111 .
#30000000000000
b0110 "
0$
b0110 '
0(
b00110 ,
b00000 -
#30100000000000
b0000 #
1$
1%
1(
b0000 )
1*
b00001 -
b10000 .
#30200000000000
b0111 "
0$
b0111 '
0(
b00111 ,
b00000 -
#30300000000000
b0001 #
1$
1(
b0001 )
b00001 -
b10001 .
#30400000000000
b1000 "
0$
b1000 '
0(
b01000 ,
b00000 -
#30500000000000
b0010 #
1$
1(
b0010 )
b00001 -
b10010 .
#30600000000000
b1001 "
0$
b1001 '
0(
b01001 ,
b00000 -
#30700000000000
b0011 #
1$
1(
b0011 )
b00001 -
b10011 .
#30800000000000
b1010 "
0$
b1010 '
0(
b01010 ,
b00000 -
#30900000000000
b0100 #
1$
1(
b0100 )
b00001 -
b10100 .
#31000000000000
b1011 "
0$
b1011 '
0(
b01011 ,
b00000 -
#31100000000000
b0101 #
1$
1(
b0101 )
b00001 -
b10101 .
#31200000000000
b1100 "
0$
b1100 '
0(
b01100 ,
b00000 -
#31300000000000
b0110 #
1$
1(
b0110 )
b00001 -
b10110 .
#31400000000000
b1101 "
0$
b1101 '
0(
b01101 ,
b00000 -
#31500000000000
b0111 #
1$
1(
b0111 )
b00001 -
b10111 .
#31600000000000
b1110 "
0$
b1110 '
0(
b01110 ,
b00000 -
#31700000000000
b1000 #
1$
1(
b1000 )
b00001 -
b11000 .
#31800000000000
b1111 "
0$
b1111 '
0(
b01111 ,
b00000 -
#31900000000000
b1001 #
1$
1(
b1001 )
b00001 -
b11001 .
#32000000000000
b1010 !
b0000 "
b1010 #
0$
0%
b1010 &
b0000 '
0(
b1010 )
0*
b01010 +
b00000 ,
b00000 -
b01010 .
#32100000000000
b1011 #
1$
1(
b1011 )
b00001 -
b01011 .
#32200000000000
b0001 "
0$
b0001 '
0(
b00001 ,
b00000 -
#32300000000000
b1100 #
1$
1(
b1100 )
b00001 -
b01100 .
#32400000000000
b0010 "
0$
b0010 '
0(
b00010 ,
b00000 -
#32500000000000
b1101 #
1$
1(
b1101 )
b00001 -
b01101 .
#32600000000000
b0011 "
0$
b0011 '
0(
b00011 ,
b00000 -
#32700000000000
b1110 #
1$
1(
b1110 )
b00001 -
b01110 .
#32800000000000
b0100 "
0$
b0100 '
0(
b00100 ,
b00000 -
#32900000000000
b1111 #
1$
1(
b1111 )
b00001 -
b01111 .
#33000000000000
b0101 "
0$
b0101 '
0(
b00101 ,
b00000 -
#33100000000000
b0000 #
1$
1%
1(
b0000 )
1*
b00001 -
b10000 .
#33200000000000
b0110 "
0$
b0110 '
0(
b00110 ,
b00000 -
#33300000000000
b0001 #
1$
1(
b0001 )
b00001 -
b10001 .
#33400000000000
b0111 "
0$
b0111 '
0(
b00111 ,
b00000 -
#33500000000000
b0010 #
1$
1(
b0010 )
b00001 -
b10010 .
#33600000000000
b1000 "
0$
b1000 '
0(
b01000 ,
b00000 -
#33700000000000
b0011 #
1$
1(
b0011 )
b00001 -
b10011 .
#33800000000000
b1001 "
0$
b1001 '
0(
b01001 ,
b00000 -
#33900000000000
b0100 #
1$
1(
b0100 )
b00001 -
b10100 .
#34000000000000
b1010 "
0$
b1010 '
0(
b01010 ,
b00000 -
#34100000000000
b0101 #
1$
1(
b0101 )
b00001 -
b10101 .
#34200000000000
b1011 "
0$
b1011 '
0(
b01011 ,
b00000 -
#34300000000000
b0110 #
1$
1(
b0110 )
b00001 -
b10110 .
#34400000000000
b1100 "
0$
b1100 '
0(
b01100 ,
b00000 -
#34500000000000
b0111 #
1$
1(
b0111 )
b00001 -
b10111 .
#34600000000000
b1101 "
0$
b1101 '
0(
b01101 ,
b00000 -
#34700000000000
b1000 #
1$
1(
b1000 )
b00001 -
b11000 .
#34800000000000
b1110 "
0$
b1110 '
0(
b01110 ,
b00000 -
#34900000000000
b1001 #
1$
1(
b1001 )
b00001 -
b11001 .
#35000000000000
b1111 "
0$
b1111 '
0(
b01111 ,
b00000 -
#35100000000000
b1010 #
1$
1(
b1010 )
b00001 -
b11010 .
#35200000000000
b1011 !
b0000 "
b1011 #
0$
0%
b1011 &
b0000 '
0(
b1011 )
0*
b01011 +
b00000 ,
b00000 -
b01011 .
#35300000000000
b1100 #
1$
1(
b1100 )
b00001 -
b01100 .
#35400000000000
b0001 "
0$
b0001 '
0(
b00001 ,
b00000 -
#35500000000000
b1101 #
1$
1(
b1101 )
b00001 -
b01101 .
#35600000000000
b0010 "
0$
b0010 '
0(
b00010 ,
b00000 -
#35700000000000
b1110 #
1$
1(
b1110 )
b00001 -
b01110 .
#35800000000000
b0011 "
0$
b0011 '
0(
b00011 ,
b00000 -
#35900000000000
b1111 #
1$
1(
b1111 )
b00001 -
b01111 .
#36000000000000
b0100 "
0$
b0100 '
0(
b00100 ,
b00000 -
#36100000000000
b0000 #
1$
1%
1(
b0000 )
1*
b00001 -
b10000 .
#36200000000000
b0101 "
0$
b0101 '
0(
b00101 ,
b00000 -
#36300000000000
b0001 #
1$
1(
b0001 )
b00001 -
b10001 .
#36400000000000
b0110 "
0$
b0110 '
0(
b00110 ,
b00000 -
#36500000000000
b0010 #
1$
1(
b0010 )
b00001 -
b10010 .
#36600000000000
b0111 "
0$
b0111 '
0(
b00111 ,
b00000 -
#36700000000000
b0011 #
1$
1(
b0011 )
b00001 -
b10011 .
#36800000000000
b1000 "
0$
b1000 '
0(
b01000 ,
b00000 -
#36900000000000
b0100 #
1$
1(
b0100 )
b00001 -
b10100 .
#37000000000000
b1001 "
0$
b1001 '
0(
b01001 ,
b00000 -
#37100000000000
b0101 #
1$
1(
b0101 )
b00001 -
b10101 .
#37200000000000
b1010 "
0$
b1010 '
0(
b01010 ,
b00000 -
#37300000000000
b0110 #
1$
1(
b0110 )
b00001 -
b10110 .
#37400000000000
b1011 "
0$
b1011 '
0(
b01011 ,
b00000 -
