project/microcontroller/instructions/memory_instructions.vcd
$date
  Sun Apr 09 09:32:25 2023
$end
$version
  GHDL v0
$end
$timescale
  1 fs
$end
$var reg 1 ! clk $end
$var reg 1 " reset $end
$var reg 4 # sel_fct[3:0] $end
$var reg 4 $ sel_route[3:0] $end
$var reg 2 % sel_out[1:0] $end
$scope module instr_tb $end
$var reg 1 & clk $end
$var reg 1 ' reset $end
$var reg 4 ( sel_fct[3:0] $end
$var reg 4 ) sel_route[3:0] $end
$var reg 2 * sel_out[1:0] $end
$var reg 10 + instruction[9:0] $end
$scope module mem_instructions $end
$var reg 1 , clk $end
$var reg 1 - reset $end
$var reg 10 . instruction[9:0] $end
$comment instructions is not handled $end
$var reg 1 / isstartup $end
$var integer 32 0 instructions_size $end
$upscope $end
$scope module mem_sel_fct $end
$var reg 1 1 clk $end
$var reg 1 2 reset $end
$var reg 4 3 input[3:0] $end
$var reg 4 4 output[3:0] $end
$upscope $end
$scope module mem_sel_out $end
$var reg 1 5 clk $end
$var reg 1 6 reset $end
$var reg 2 7 input[1:0] $end
$var reg 2 8 output[1:0] $end
$upscope $end
$upscope $end
$enddefinitions $end
#0
0!
0"
b0000 #
bUUUU $
b00 %
0&
0'
b0000 (
bUUUU )
b00 *
bUUUUUUUUUU +
0,
0-
bUUUUUUUUUU .
0/
b100000 0
01
02
bUUUU 3
b0000 4
05
06
bUU 7
b00 8
#5000000
1!
b0000 $
1&
b0000 )
b0000000000 +
1,
b0000000000 .
11
b0000 3
15
b00 7
#10000000
0!
0&
0,
01
05
#15000000
1!
1&
b0000000001 +
1,
b0000000001 .
11
15
b01 7
#20000000
0!
b01 %
0&
b01 *
0,
01
05
b01 8
#25000000
1!
1&
b0000000010 +
1,
b0000000010 .
11
15
b10 7
#30000000
0!
b10 %
0&
b10 *
0,
01
05
b10 8
#35000000
1!
1&
b0000000011 +
1,
b0000000011 .
11
15
b11 7
#40000000
0!
b11 %
0&
b11 *
0,
01
05
b11 8
#45000000
1!
b0001 $
1&
b0001 )
b0000000100 +
1,
b0000000100 .
11
15
b00 7
#50000000
0!
b00 %
0&
b00 *
0,
01
05
b00 8
#55000000
1!
1&
b0000000101 +
1,
b0000000101 .
11
15
b01 7
#60000000
0!
b01 %
0&
b01 *
0,
01
05
b01 8
#65000000
1!
1&
b0000000110 +
1,
b0000000110 .
11
15
b10 7
#70000000
0!
b10 %
0&
b10 *
0,
01
05
b10 8
#75000000
1!
1&
b0000000111 +
1,
b0000000111 .
11
15
b11 7
#80000000
0!
b11 %
0&
b11 *
0,
01
05
b11 8
#85000000
1!
b0010 $
1&
b0010 )
b0000001000 +
1,
b0000001000 .
11
15
b00 7
#90000000
0!
b00 %
0&
b00 *
0,
01
05
b00 8
#95000000
1!
1&
b0000001001 +
1,
b0000001001 .
11
15
b01 7
#100000000
0!
b01 %
0&
b01 *
0,
01
05
b01 8
#105000000
1!
1&
b0000001010 +
1,
b0000001010 .
11
15
b10 7
#110000000
0!
b10 %
0&
b10 *
0,
01
05
b10 8
#115000000
1!
1&
b0000001011 +
1,
b0000001011 .
11
15
b11 7
#120000000
0!
b11 %
0&
b11 *
0,
01
05
b11 8
#125000000
1!
b0011 $
1&
b0011 )
b0000001100 +
1,
b0000001100 .
11
15
b00 7
#130000000
0!
b00 %
0&
b00 *
0,
01
05
b00 8
#135000000
1!
1&
b0000001101 +
1,
b0000001101 .
11
15
b01 7
#140000000
0!
b01 %
0&
b01 *
0,
01
05
b01 8
#145000000
1!
1&
b0000001110 +
1,
b0000001110 .
11
15
b10 7
#150000000
0!
b10 %
0&
b10 *
0,
01
05
b10 8
#155000000
1!
1&
b0000001111 +
1,
b0000001111 .
11
15
b11 7
#160000000
0!
b11 %
0&
b11 *
0,
01
05
b11 8
#165000000
1!
b0100 $
1&
b0100 )
b0000010000 +
1,
b0000010000 .
11
15
b00 7
#170000000
0!
b00 %
0&
b00 *
0,
01
05
b00 8
#175000000
1!
1&
b0000010001 +
1,
b0000010001 .
11
15
b01 7
#180000000
0!
b01 %
0&
b01 *
0,
01
05
b01 8
#185000000
1!
1&
b0000010010 +
1,
b0000010010 .
11
15
b10 7
#190000000
0!
b10 %
0&
b10 *
0,
01
05
b10 8
#195000000
1!
1&
b0000010011 +
1,
b0000010011 .
11
15
b11 7
#200000000
0!
b11 %
0&
b11 *
0,
01
05
b11 8
#205000000
1!
b0101 $
1&
b0101 )
b0000010100 +
1,
b0000010100 .
11
15
b00 7
#210000000
0!
b00 %
0&
b00 *
0,
01
05
b00 8
#215000000
1!
1&
b0000010101 +
1,
b0000010101 .
11
15
b01 7
#220000000
0!
b01 %
0&
b01 *
0,
01
05
b01 8
#225000000
1!
1&
b0000010110 +
1,
b0000010110 .
11
15
b10 7
#230000000
0!
b10 %
0&
b10 *
0,
01
05
b10 8
#235000000
1!
1&
b0000010111 +
1,
b0000010111 .
11
15
b11 7
#240000000
0!
b11 %
0&
b11 *
0,
01
05
b11 8
#245000000
1!
b0110 $
1&
b0110 )
b0000011000 +
1,
b0000011000 .
11
15
b00 7
#250000000
0!
b00 %
0&
b00 *
0,
01
05
b00 8
#255000000
1!
1&
b0000011001 +
1,
b0000011001 .
11
15
b01 7
#260000000
0!
b01 %
0&
b01 *
0,
01
05
b01 8
#265000000
1!
1&
b0000011010 +
1,
b0000011010 .
11
15
b10 7
#270000000
0!
b10 %
0&
b10 *
0,
01
05
b10 8
#275000000
1!
1&
b0000011011 +
1,
b0000011011 .
11
15
b11 7
#280000000
0!
b11 %
0&
b11 *
0,
01
05
b11 8
#285000000
1!
b0111 $
1&
b0111 )
b0000011100 +
1,
b0000011100 .
11
15
b00 7
#290000000
0!
b00 %
0&
b00 *
0,
01
05
b00 8
#295000000
1!
1&
b0000011101 +
1,
b0000011101 .
11
15
b01 7
#300000000
0!
b01 %
0&
b01 *
0,
01
05
b01 8
#305000000
1!
1&
b0000011110 +
1,
b0000011110 .
11
15
b10 7
#310000000
0!
b10 %
0&
b10 *
0,
01
05
b10 8
#315000000
1!
1&
b0000011111 +
1,
b0000011111 .
11
15
b11 7
#320000000
0!
b11 %
0&
b11 *
0,
01
05
b11 8
