project/microcontroller/instructions/memory_instructions/memory_instructions.vcd
$date
  Sat Apr 08 15:27:27 2023
$end
$version
  GHDL v0
$end
$timescale
  1 fs
$end
$var reg 1 ! clk $end
$var reg 1 " reset $end
$var reg 10 # instruction[9:0] $end
$scope module memory_instr_tb $end
$var reg 1 $ clk $end
$var reg 1 % reset $end
$var reg 10 & instruction[9:0] $end
$comment instructions is not handled $end
$var reg 1 ' isstartup $end
$var integer 32 ( instructions_size $end
$upscope $end
$enddefinitions $end
#0
0!
0"
b0000000000 #
0$
0%
b0000000000 &
0'
b100000 (
#5000000
1!
1$
#10000000
0!
0$
#15000000
1!
b0000000001 #
1$
b0000000001 &
#20000000
0!
0$
#25000000
1!
b0000000010 #
1$
b0000000010 &
#30000000
0!
0$
#35000000
1!
b0000000011 #
1$
b0000000011 &
#40000000
0!
0$
#45000000
1!
b0000000100 #
1$
b0000000100 &
#50000000
0!
0$
#55000000
1!
b0000000101 #
1$
b0000000101 &
#60000000
0!
0$
#65000000
1!
b0000000110 #
1$
b0000000110 &
#70000000
0!
0$
#75000000
1!
b0000000111 #
1$
b0000000111 &
#80000000
0!
0$
#85000000
1!
b0000001000 #
1$
b0000001000 &
#90000000
0!
0$
#95000000
1!
b0000001001 #
1$
b0000001001 &
#100000000
0!
0$
#105000000
1!
b0000001010 #
1$
b0000001010 &
#110000000
0!
0$
#115000000
1!
b0000001011 #
1$
b0000001011 &
#120000000
0!
0$
#125000000
1!
b0000001100 #
1$
b0000001100 &
#130000000
0!
0$
#135000000
1!
b0000001101 #
1$
b0000001101 &
#140000000
0!
0$
#145000000
1!
b0000001110 #
1$
b0000001110 &
#150000000
0!
0$
#155000000
1!
b0000001111 #
1$
b0000001111 &
#160000000
0!
0$
#165000000
1!
b0000010000 #
1$
b0000010000 &
#170000000
0!
0$
#175000000
1!
b0000010001 #
1$
b0000010001 &
#180000000
0!
0$
#185000000
1!
b0000010010 #
1$
b0000010010 &
#190000000
0!
0$
#195000000
1!
b0000010011 #
1$
b0000010011 &
#200000000
0!
0$
#205000000
1!
b0000010100 #
1$
b0000010100 &
#210000000
0!
0$
#215000000
1!
b0000010101 #
1$
b0000010101 &
#220000000
0!
0$
#225000000
1!
b0000010110 #
1$
b0000010110 &
#230000000
0!
0$
#235000000
1!
b0000010111 #
1$
b0000010111 &
#240000000
0!
0$
#245000000
1!
b0000011000 #
1$
b0000011000 &
#250000000
0!
0$
#255000000
1!
b0000011001 #
1$
b0000011001 &
#260000000
0!
0$
#265000000
1!
b0000011010 #
1$
b0000011010 &
#270000000
0!
0$
#275000000
1!
b0000011011 #
1$
b0000011011 &
#280000000
0!
0$
#285000000
1!
b0000011100 #
1$
b0000011100 &
#290000000
0!
0$
#295000000
1!
b0000011101 #
1$
b0000011101 &
#300000000
0!
0$
#305000000
1!
b0000011110 #
1$
b0000011110 &
#310000000
0!
0$
#315000000
1!
b0000011111 #
1$
b0000011111 &
